^D:\SKILLBOXUEPROJECTS\VISUALSTUDIOPROJECTS\15.4\15.4\15.4.CPP
D:\SKILLBOXUEPROJECTS\VISUALSTUDIOPROJECTS\15.4\15.4\X64\DEBUG\VC143.PDB
D:\SKILLBOXUEPROJECTS\VISUALSTUDIOPROJECTS\15.4\15.4\X64\DEBUG\VC143.IDB
D:\SKILLBOXUEPROJECTS\VISUALSTUDIOPROJECTS\15.4\15.4\X64\DEBUG\15.4.OBJ
